…
sacc  amy 
  24   19 
Warning messages:
1: In asMethod(object) :
  sparse->dense coercion: allocating vector of size 2.6 GiB
2: In asMethod(object) :
  sparse->dense coercion: allocating vector of size 2.4 GiB
$sacc
# A tibble: 24 × 2
   cellType.target     n
   <fct>           <int>
 1 sacc_Oligo_B       21
 2 sacc_Astro_A       25
 3 sacc_Astro_B       25
 4 sacc_Excit_A       25
 5 sacc_Excit_B       25
 6 sacc_Excit_C       25
 7 sacc_Excit_D       25
 8 sacc_Excit_E       25
 9 sacc_Excit_F       25
10 sacc_Excit_G       25
# ℹ 14 more rows
…
