…
$amy

amy_Astro_A amy_Astro_B    amy_Endo amy_Excit_A amy_Excit_B amy_Excit_C 
       1555          83          31         344          44          55 
amy_Inhib_A amy_Inhib_B amy_Inhib_C amy_Inhib_D amy_Inhib_E amy_Inhib_F 
        728         541         525         555         414         216 
amy_Inhib_G amy_Inhib_H   amy_Micro   amy_Mural   amy_Oligo     amy_OPC 
         86          52        1168          39        6080        1459 
  amy_Tcell 
         31 

Loading objects:
  marker_stats_fine
$sacc
# A tibble: 24 × 2
   cellType.target     n
   <fct>           <int>
 1 sacc_Inhib_H       20
 2 sacc_Excit_E       21
 3 sacc_Excit_F       21
 4 sacc_Excit_G       21
 5 sacc_Inhib_E       21
 6 sacc_Inhib_J       21
 7 sacc_Oligo_B       21
 8 sacc_Excit_A       22
 9 sacc_Inhib_I       22
10 sacc_OPC           22
# ℹ 14 more rows
…
